{
    "KPlugin": {
        "Authors": [
            {
                "Email": "aleixpol@kde.org",
                "Name": "Aleix Pol",
                "Name[ar]": "Aleix Pol",
                "Name[az]": "Aleix Pol",
                "Name[bg]": "Aleix Pol",
                "Name[ca@valencia]": "Aleix Pol",
                "Name[ca]": "Aleix Pol",
                "Name[cs]": "Aleix Pol",
                "Name[da]": "Aleix Pol",
                "Name[de]": "Aleix Pol",
                "Name[el]": "Aleix Pol",
                "Name[en_GB]": "Aleix Pol",
                "Name[es]": "Aleix Pol",
                "Name[et]": "Aleix Pol",
                "Name[eu]": "Aleix Pol",
                "Name[fi]": "Aleix Pol",
                "Name[fr]": "Aleix Pol",
                "Name[gl]": "Aleix Pol",
                "Name[hu]": "Aleix Pol",
                "Name[ia]": "Aleix Pol",
                "Name[id]": "Aleix Pol",
                "Name[ie]": "Aleix Pol",
                "Name[is]": "Aleix Pol",
                "Name[it]": "Aleix Pol",
                "Name[ka]": "ალის პოლი",
                "Name[ko]": "Aleix Pol",
                "Name[lt]": "Aleix Pol",
                "Name[nl]": "Aleix Pol",
                "Name[nn]": "Aleix Pol",
                "Name[pl]": "Aleix Pol",
                "Name[pt]": "Aleix Pol",
                "Name[pt_BR]": "Aleix Pol",
                "Name[ro]": "Aleix Pol",
                "Name[ru]": "Aleix Pol",
                "Name[sk]": "Aleix Pol",
                "Name[sl]": "Aleix Pol",
                "Name[sr@ijekavian]": "Алекс Пол Гонзалез",
                "Name[sr@ijekavianlatin]": "Aleks Pol Gonzalez",
                "Name[sr@latin]": "Aleks Pol Gonzalez",
                "Name[sr]": "Алекс Пол Гонзалез",
                "Name[sv]": "Aleix Pol",
                "Name[tr]": "Aleix Pol",
                "Name[uk]": "Aleix Pol",
                "Name[x-test]": "xxAleix Polxx",
                "Name[zh_CN]": "Aleix Pol",
                "Name[zh_TW]": "Aleix Pol"
            }
        ],
        "Description": "Use your mobile device to point to things on the screen",
        "Description[ar]": "استعمل جهازك الجوال لتؤشر على الأشياء في الشاشة",
        "Description[az]": "Ekrandakıları göstərmək üçün mobil cihazınızdan kursor kimi istifadə edin",
        "Description[bg]": "Използвайте мобилното си устройство, за да посочвате нещата на екрана.",
        "Description[ca@valencia]": "Utilitza el dispositiu mòbil per a assenyalar coses en la pantalla",
        "Description[ca]": "Usa el dispositiu mòbil per a assenyalar coses a la pantalla",
        "Description[cs]": "Použijte mobilní zařízení k ukázání na položky na obrazovce",
        "Description[da]": "Brug din mobiltelefon til at udpege ting på skærmen",
        "Description[de]": "Anzeige von Objekten auf dem Bildschirm mit Ihrem mobilen Gerät",
        "Description[el]": "Χρησιμοποιήστε το κινητό σας για να δείξετε αντικείμενα στην οθόνη",
        "Description[en_GB]": "Use your mobile device to point to things on the screen",
        "Description[es]": "Use su dispositivo móvil para apuntar a elementos en pantalla",
        "Description[et]": "Oma mobiilseadme kasutamine asjadele osutamiseks ekraanil",
        "Description[eu]": "Erabili zure gailu mugikorra pantailako gauzak seinalatzeko",
        "Description[fi]": "Osoita mobiililaitteellasi asioita näytöllä",
        "Description[fr]": "Utilisez votre appareil mobile pour afficher des choses à l'écran",
        "Description[gl]": "Use o seu dispositivo móbil para apuntar a cousas na pantalla",
        "Description[hu]": "A mobileszköz használata dolgokra rámutatáshoz a képernyőn",
        "Description[ia]": "Usa tu dispositivo mobile pro punctar a cosas sur le schermo",
        "Description[id]": "Gunakan peranti telepon Anda untuk menunjuk berbagai hal di layar",
        "Description[is]": "Notaðu snjallsímann þinn sem bendil á skjá",
        "Description[it]": "Usa il tuo dispositivo mobile per indicare gli oggetti sullo schermo",
        "Description[ko]": "모바일 장치로 화면의 항목 가리키기",
        "Description[lt]": "Naudoti savo mobilųjį įrenginį, siekiant nurodyti į dalykus ekrane",
        "Description[nl]": "Uw mobiele apparaat gebruiken om naar dingen op het scherm te wijzen",
        "Description[nn]": "Bruk mobiltelefonen til å peika på ting på skjermen",
        "Description[pl]": "Wskazuje innym urządzeniem na ekranie tego urządzenia",
        "Description[pt]": "Use o seu dispositivo móvel para apontar para coisas no ecrã",
        "Description[pt_BR]": "Use o seu dispositivo móvel para apontar para elementos na tela",
        "Description[ro]": "Folosiți telefonul pentru a indica spre lucruri de pe ecran",
        "Description[ru]": "Использование мобильного устройства в качестве указки",
        "Description[sk]": "Použitie vášho mobilného zariadenia ako ukazovateľa na objekty na obrazovke",
        "Description[sl]": "Uporabi svojo mobilno napravo, da pokažeš na stvari na zaslonu",
        "Description[sv]": "Använd mobilen för att peka på saker på skärmen",
        "Description[tr]": "Ekrandaki şeylere işaret etmek için taşınabilir aygıtınızı kullanın",
        "Description[uk]": "Використання мобільного пристрою для керування об'єктами на екрані",
        "Description[x-test]": "xxUse your mobile device to point to things on the screenxx",
        "Description[zh_CN]": "使用您的移动设备在屏幕上指点",
        "Description[zh_TW]": "將您的行動裝置當作螢幕指標使用",
        "EnabledByDefault": true,
        "Icon": "view-presentation",
        "Id": "kdeconnect_presenter",
        "License": "GPL",
        "Name": "Presenter",
        "Name[ar]": "المقدم",
        "Name[az]": "Təqdimatçı",
        "Name[bg]": "Представител",
        "Name[ca@valencia]": "Presentador",
        "Name[ca]": "Presentador",
        "Name[cs]": "Promítání",
        "Name[da]": "Præsentation",
        "Name[de]": "Präsentation",
        "Name[el]": "Παρουσιαστής",
        "Name[en_GB]": "Presenter",
        "Name[es]": "Presentador",
        "Name[et]": "Esitleja",
        "Name[eu]": "Aurkezlea",
        "Name[fi]": "Esitys",
        "Name[fr]": "Présentateur",
        "Name[gl]": "Presentador",
        "Name[hu]": "Bemutató",
        "Name[ia]": "Presentator",
        "Name[id]": "Presentasi",
        "Name[is]": "Kynningarskjár",
        "Name[it]": "Presentatore",
        "Name[ka]": "წარმომდგენი",
        "Name[ko]": "프레젠터",
        "Name[lt]": "Pristatytojas",
        "Name[nl]": "Presentator",
        "Name[nn]": "Presentatør",
        "Name[pl]": "Wskazywanie rzeczy",
        "Name[pt]": "Apresentação",
        "Name[pt_BR]": "Apresentação",
        "Name[ro]": "Prezentator",
        "Name[ru]": "Управление презентациями",
        "Name[sk]": "Nástroj prezentácie",
        "Name[sl]": "Predavatelj",
        "Name[sv]": "Presentatör",
        "Name[tr]": "Sunucu",
        "Name[uk]": "Презентатор",
        "Name[x-test]": "xxPresenterxx",
        "Name[zh_CN]": "演讲者",
        "Name[zh_TW]": "提供者",
        "ServiceTypes": [
            "KdeConnect/Plugin"
        ]
    },
    "X-KdeConnect-OutgoingPacketType": [],
    "X-KdeConnect-SupportedPacketType": [
        "kdeconnect.presenter"
    ]
}
